{
	"vectorControls":
	{
		"actions":
		[
			"move", // We can move.
			"rotate" // And we can rotate.
		],
		"buttons":
		{
			"T":
			[
				{
					"action": "move",
					"vector": {"x": 0.0, "y": 0.0, "z": -1.0}
				}
			],
			"F":
			[
				{
					"action": "move",
					"vector": {"x": -1.0, "y": 0.0, "z": 0.0}
				}
			],
			"G":
			[
				{
					"action": "move",
					"vector": {"x": 0.0, "y": 0.0, "z": 1.0}
				}
			],
			"H":
			[
				{
					"action": "move",
					"vector": {"x": 1.0, "y": 0.0, "z": 0.0}
				}
			],
			"R":
			[
				{
					"action": "rotate",
					"vector":{"x": 0.0, "y": -1.0, "z": 0.0}// Only X is used by rotate.
				}
			],
			"Y":
			[
				{
					"action": "rotate",
					"vector": {"x": 0.0, "y": 1.0, "z": 0.0} // Only X is used by rotate.
				}
			],
			"O":
			[
				{
					"action": "move",
					"vector": {"x": 0.0, "y": 1.0, "z": 0.0} // Only X is used by rotate.
				}
			],
			"N":
			[
				{
					"action": "move",
					"vector": {"x": 0.0, "y": -1.0, "z": 0.0} // Only X is used by rotate.
				}
			]
		}
	}
}
