# Blender MTL File: 'BGEAR_plane.blend'
# Material Count: 11

newmtl Material
Ns 96.078431
Ka 0.000000 0.000000 0.000000
Kd 0.801276 0.795898 0.806654
Ks 0.000000 0.000000 0.000000
Ni 1.000000
d 1.000000
illum 1

newmtl Material.001
Ns 96.078431
Ka 0.000000 0.000000 0.000000
Kd 0.588655 0.588655 0.588655
Ks 0.000000 0.000000 0.000000
Ni 1.000000
d 1.000000
illum 1
map_Kd textures\\trackmap.jpg

newmtl PFD.001
Ns 96.078431
Ka 0.000000 0.000000 0.000000
Kd 0.239055 0.552831 0.899183
Ks 0.625618 0.452745 0.166326
Ni 1.000000
d 1.000000
illum 0
map_Kd textures\\PFD_vert_1.png

newmtl chassis
Ns 194.117647
Ka 0.000000 0.000000 0.000000
Kd 1.000000 1.000000 1.000000
Ks 1.000000 1.000000 1.000000
Ni 1.000000
d 1.000000
illum 2
map_Kd textures\\plane_texture_blue.png

newmtl cockpit
Ns 17.647059
Ka 0.000000 0.000000 0.000000
Kd 0.873320 0.873320 0.873320
Ks 0.068682 0.071369 0.076665
Ni 1.000000
d 1.000000
illum 2
map_Kd textures\\cockpit.png

newmtl glass
Ns 194.117647
Ka 0.000000 0.000000 0.000000
Kd 0.154408 0.263164 0.277323
Ks 1.000000 1.000000 1.000000
Ni 1.000000
d 0.300000
illum 2

newmtl glass_in
Ns 96.078431
Ka 0.000000 0.000000 0.000000
Kd 0.230610 0.275344 0.298656
Ks 0.500000 0.500000 0.500000
Ni 1.000000
d 0.300000
illum 2

newmtl instruments
Ns 96.078431
Ka 0.000000 0.000000 0.000000
Kd 0.640000 0.640000 0.640000
Ks 0.000000 0.000000 0.000000
Ni 1.000000
d 1.000000
illum 1
map_Kd textures\instruments.jpg

newmtl instruments_NONE
Ns 96.078431
Ka 0.000000 0.000000 0.000000
Kd 0.640000 0.640000 0.640000
Ks 0.000000 0.000000 0.000000
Ni 1.000000
d 1.000000
illum 1
map_Kd textures\\instruments.jpg

newmtl panels
Ns 96.078431
Ka 0.000000 0.000000 0.000000
Kd 0.486653 0.486653 0.486653
Ks 1.000000 1.000000 1.000000
Ni 1.000000
d 1.000000
illum 2
map_Kd textures\\carbonfiber.png
map_Ks textures\\carbonfiber.png

newmtl tube
Ns 96.078431
Ka 0.000000 0.000000 0.000000
Kd 0.497045 0.429919 0.000000
Ks 0.000000 0.000000 0.000000
Ni 1.000000
d 0.596450
illum 1
