# Blender MTL File: 'level.blend'
# Material Count: 47

newmtl None
Ns 0
Ka 0.000000 0.000000 0.000000
Kd 0.8 0.8 0.8
Ks 0.8 0.8 0.8
d 1
illum 2

newmtl black_wire
Ns 96.078431
Ka 0.000000 0.000000 0.000000
Kd 0.008019 0.008019 0.008019
Ks 0.000000 0.000000 0.000000
Ni 1.000000
d 1.000000
illum 1
map_Kd C:\Users\moohoohoo\Desktop\DeadProject Goal1\textures\dec_part_points.png
map_Ke C:\\Users\\moohoohoo\\Desktop\\DeadProject Goal1\\textures\\dec_part_points.png

newmtl black_wire_NONE
Ns 96.078431
Ka 0.000000 0.000000 0.000000
Kd 0.008019 0.008019 0.008019
Ks 0.000000 0.000000 0.000000
Ni 1.000000
d 1.000000
illum 1
map_Kd C:\\Users\\moohoohoo\\Desktop\\DeadProject Goal1\\textures\\dec_part_points.png
map_Ke C:\\Users\\moohoohoo\\Desktop\\DeadProject Goal1\\textures\\dec_part_points.png

newmtl blue_emit
Ns 96.078431
Ka 0.000000 0.000000 0.000000
Kd 0.556529 0.683090 0.800000
Ks 0.500000 0.500000 0.500000
Ni 1.000000
d 1.000000
illum 0
map_Kd C:\Users\moohoohoo\Desktop\DeadProject Goal1\textures\modular_texture.dds

newmtl blue_emit_NONE
Ns 96.078431
Ka 0.000000 0.000000 0.000000
Kd 0.556529 0.683090 0.800000
Ks 0.500000 0.500000 0.500000
Ni 1.000000
d 1.000000
illum 0

newmtl blue_glow
Ns 96.078431
Ka 0.000000 0.000000 0.000000
Kd 0.414552 0.529245 0.640000
Ks 0.500000 0.500000 0.500000
Ni 1.000000
d 1.000000
illum 2
map_Kd C:\Users\moohoohoo\Desktop\DeadProject Goal1\textures\modular_texture.dds

newmtl blue_modular
Ns 45.098039
Ka 0.000000 0.000000 0.000000
Kd 0.589620 0.693178 0.800000
Ks 1.000000 1.000000 1.000000
Ni 1.000000
d 1.000000
illum 2
map_Kd C:\Users\moohoohoo\Desktop\DeadProject Goal1\textures\modular_texture.dds
map_Bump C:\\Users\\moohoohoo\\Desktop\\DeadProject Goal1\\textures\\modular_texture_NRM.dds
refl C:\\Users\\moohoohoo\\Desktop\\DeadProject Goal1\\textures\\ref_map_cubic.dds

newmtl blue_modular_NONE
Ns 45.098039
Ka 0.000000 0.000000 0.000000
Kd 0.589620 0.693178 0.800000
Ks 1.000000 1.000000 1.000000
Ni 1.000000
d 1.000000
illum 2
map_Bump C:\\Users\\moohoohoo\\Desktop\\DeadProject Goal1\\textures\\modular_texture_NRM.dds
map_Kd C:\\Users\\moohoohoo\\Desktop\\DeadProject Goal1\\textures\\modular_texture.dds
refl C:\\Users\\moohoohoo\\Desktop\\DeadProject Goal1\\textures\\ref_map_cubic.dds

newmtl blue_modular_fake_glow.png
Ns 45.098039
Ka 0.000000 0.000000 0.000000
Kd 0.589620 0.693178 0.800000
Ks 1.000000 1.000000 1.000000
Ni 1.000000
d 1.000000
illum 2
map_Kd C:\Users\moohoohoo\Desktop\DeadProject Goal1\textures\dec_glow_random.png
map_Bump C:\\Users\\moohoohoo\\Desktop\\DeadProject Goal1\\textures\\modular_texture_NRM.dds
refl C:\\Users\\moohoohoo\\Desktop\\DeadProject Goal1\\textures\\ref_map_cubic.dds

newmtl decals
Ns 96.078431
Ka 0.000000 0.000000 0.000000
Kd 0.800000 0.800000 0.800000
Ks 0.000000 0.000000 0.000000
Ni 1.000000
d 0.000000
illum 1
map_Kd C:\Users\moohoohoo\Desktop\DeadProject Goal1\textures\dec_paper_warning.png
map_d C:\\Users\\moohoohoo\\Desktop\\DeadProject Goal1\\textures\\dec_paper_warning.png

newmtl decals_rough_dirt
Ns 96.078431
Ka 0.000000 0.000000 0.000000
Kd 0.134359 0.099911 0.070878
Ks 0.000000 0.000000 0.000000
Ni 1.000000
d 0.000000
illum 1
map_Kd C:\Users\moohoohoo\Desktop\DeadProject Goal1\textures\dec_explosion_hole.png
map_d C:\\Users\\moohoohoo\\Desktop\\DeadProject Goal1\\textures\\dec_explosion_hole.png

newmtl fake_glow
Ns 96.078431
Ka 0.000000 0.000000 0.000000
Kd 0.640000 0.640000 0.640000
Ks 0.500000 0.500000 0.500000
Ni 1.000000
d 0.000000
illum 0
map_Kd C:\Users\moohoohoo\Desktop\DeadProject Goal1\textures\dec_glow_random.png
map_d C:\\Users\\moohoohoo\\Desktop\\DeadProject Goal1\\textures\\dec_glow_random.png

newmtl fake_glow_NONE
Ns 96.078431
Ka 0.000000 0.000000 0.000000
Kd 0.640000 0.640000 0.640000
Ks 0.500000 0.500000 0.500000
Ni 1.000000
d 0.000000
illum 0
map_Kd C:\\Users\\moohoohoo\\Desktop\\DeadProject Goal1\\textures\\dec_glow_random.png
map_d C:\\Users\\moohoohoo\\Desktop\\DeadProject Goal1\\textures\\dec_glow_random.png

newmtl fake_glow_modular_2
Ns 96.078431
Ka 0.000000 0.000000 0.000000
Kd 0.640000 0.640000 0.640000
Ks 0.500000 0.500000 0.500000
Ni 1.000000
d 0.000000
illum 0
map_Kd C:\Users\moohoohoo\Desktop\DeadProject Goal1\textures\modular_texture_2_COL.dds
map_d C:\\Users\\moohoohoo\\Desktop\\DeadProject Goal1\\textures\\dec_glow_random.png

newmtl glass_window
Ns 96.078431
Ka 0.000000 0.000000 0.000000
Kd 0.629771 0.642623 0.616918
Ks 0.000000 0.000000 0.000000
Ni 1.000000
d 0.000000
illum 1
map_Kd C:\Users\moohoohoo\Desktop\DeadProject Goal1\textures\point_spot.png
map_d C:\\Users\\moohoohoo\\Desktop\\DeadProject Goal1\\textures\\point_spot.png
refl C:\\Users\\moohoohoo\\Desktop\\DeadProject Goal1\\textures\\ref_map_cubic.dds

newmtl grill_decals
Ns 96.078431
Ka 0.000000 0.000000 0.000000
Kd 0.800000 0.800000 0.800000
Ks 0.000000 0.000000 0.000000
Ni 1.000000
d 0.000000
illum 1
map_Kd C:\Users\moohoohoo\Desktop\DeadProject Goal1\textures\grill_floors.png
map_d C:\\Users\\moohoohoo\\Desktop\\DeadProject Goal1\\textures\\grill_floors.png

newmtl liquid_pools
Ns 233.333333
Ka 0.000000 0.000000 0.000000
Kd 0.134359 0.095317 0.067042
Ks 1.000000 1.000000 1.000000
Ni 1.000000
d 0.000000
illum 2
map_Kd C:\Users\moohoohoo\Desktop\DeadProject Goal1\textures\dec_liquid_pool.png
map_Bump C:\\Users\\moohoohoo\\Desktop\\DeadProject Goal1\\textures\\dec_liquid_pool_NRM.tga
map_Ks C:\\Users\\moohoohoo\\Desktop\\DeadProject Goal1\\textures\\ref_map_cubic.dds
map_d C:\\Users\\moohoohoo\\Desktop\\DeadProject Goal1\\textures\\dec_liquid_pool.png
refl C:\\Users\\moohoohoo\\Desktop\\DeadProject Goal1\\textures\\ref_map_cubic.dds

newmtl liquid_pools_NONE
Ns 233.333333
Ka 0.000000 0.000000 0.000000
Kd 0.134359 0.095317 0.067042
Ks 1.000000 1.000000 1.000000
Ni 1.000000
d 0.000000
illum 2
map_Bump C:\\Users\\moohoohoo\\Desktop\\DeadProject Goal1\\textures\\dec_liquid_pool_NRM.tga
map_Kd C:\\Users\\moohoohoo\\Desktop\\DeadProject Goal1\\textures\\dec_liquid_pool.png
map_Ks C:\\Users\\moohoohoo\\Desktop\\DeadProject Goal1\\textures\\ref_map_cubic.dds
map_d C:\\Users\\moohoohoo\\Desktop\\DeadProject Goal1\\textures\\dec_liquid_pool.png
refl C:\\Users\\moohoohoo\\Desktop\\DeadProject Goal1\\textures\\ref_map_cubic.dds

newmtl misc_screen_text
Ns 96.078431
Ka 0.000000 0.000000 0.000000
Kd 0.640000 0.640000 0.640000
Ks 0.500000 0.500000 0.500000
Ni 1.000000
d 1.000000
illum 0
map_Kd C:\Users\moohoohoo\Desktop\DeadProject Goal1\textures\text_various_2.dds

newmtl misc_screen_text_NONE
Ns 96.078431
Ka 0.000000 0.000000 0.000000
Kd 0.640000 0.640000 0.640000
Ks 0.500000 0.500000 0.500000
Ni 1.000000
d 1.000000
illum 0
map_Kd C:\\Users\\moohoohoo\\Desktop\\DeadProject Goal1\\textures\\text_various_2.dds

newmtl misc_screen_text_modul.tga
Ns 96.078431
Ka 0.000000 0.000000 0.000000
Kd 0.640000 0.640000 0.640000
Ks 0.500000 0.500000 0.500000
Ni 1.000000
d 1.000000
illum 0
map_Kd C:\Users\moohoohoo\Desktop\DeadProject Goal1\textures\modular_texture.dds

newmtl misc_screen_text_modular_2
Ns 96.078431
Ka 0.000000 0.000000 0.000000
Kd 0.640000 0.640000 0.640000
Ks 0.500000 0.500000 0.500000
Ni 1.000000
d 1.000000
illum 0
map_Kd C:\Users\moohoohoo\Desktop\DeadProject Goal1\textures\modular_texture_2_COL.dds

newmtl modular_3
Ns 192.156863
Ka 0.000000 0.000000 0.000000
Kd 0.800000 0.771330 0.656495
Ks 1.000000 1.000000 1.000000
Ni 1.000000
d 1.000000
illum 2
map_Kd C:\Users\moohoohoo\Desktop\DeadProject Goal1\textures\modular_texture.dds
map_Bump C:\\Users\\moohoohoo\\Desktop\\DeadProject Goal1\\textures\\modular_texture_2_NRM.dds

newmtl modular_3_NONE
Ns 192.156863
Ka 0.000000 0.000000 0.000000
Kd 0.800000 0.771330 0.656495
Ks 1.000000 1.000000 1.000000
Ni 1.000000
d 1.000000
illum 2
map_Bump C:\\Users\\moohoohoo\\Desktop\\DeadProject Goal1\\textures\\modular_texture_2_NRM.dds
map_Kd C:\\Users\\moohoohoo\\Desktop\\DeadProject Goal1\\textures\\modular_texture_2_COL.dds

newmtl modular_3_md2nrm.tga
Ns 192.156863
Ka 0.000000 0.000000 0.000000
Kd 0.800000 0.771330 0.656495
Ks 1.000000 1.000000 1.000000
Ni 1.000000
d 1.000000
illum 2
map_Kd C:\Users\moohoohoo\Desktop\DeadProject Goal1\textures\modular_texture_2_NRM.dds
map_Bump C:\\Users\\moohoohoo\\Desktop\\DeadProject Goal1\\textures\\modular_texture_2_NRM.dds

newmtl modular_3_modular_2
Ns 192.156863
Ka 0.000000 0.000000 0.000000
Kd 0.800000 0.771330 0.656495
Ks 1.000000 1.000000 1.000000
Ni 1.000000
d 1.000000
illum 2
map_Kd C:\Users\moohoohoo\Desktop\DeadProject Goal1\textures\modular_texture_2_COL.dds
map_Bump C:\\Users\\moohoohoo\\Desktop\\DeadProject Goal1\\textures\\modular_texture_2_NRM.dds

newmtl modular_dirty
Ns 45.098039
Ka 0.000000 0.000000 0.000000
Kd 1.000000 0.853971 0.707273
Ks 0.179153 0.179153 0.179153
Ni 1.000000
d 1.000000
illum 2
map_Kd C:\Users\moohoohoo\Desktop\DeadProject Goal1\textures\modular_texture.dds
map_Bump C:\\Users\\moohoohoo\\Desktop\\DeadProject Goal1\\textures\\metal_metal_burned_NRM.dds

newmtl modular_dirty_metal_burned.png
Ns 45.098039
Ka 0.000000 0.000000 0.000000
Kd 1.000000 0.853971 0.707273
Ks 0.179153 0.179153 0.179153
Ni 1.000000
d 1.000000
illum 2
map_Kd C:\Users\moohoohoo\Desktop\DeadProject Goal1\textures\metal_metal_burned.dds
map_Bump C:\\Users\\moohoohoo\\Desktop\\DeadProject Goal1\\textures\\metal_metal_burned_NRM.dds

newmtl modular_no_ref.002
Ns 96.078431
Ka 0.000000 0.000000 0.000000
Kd 0.499259 0.577739 0.609016
Ks 0.628763 0.628763 0.628763
Ni 1.000000
d 1.000000
illum 2
map_Kd C:\Users\moohoohoo\Desktop\DeadProject Goal1\textures\modular_texture.dds
map_Bump C:\\Users\\moohoohoo\\Desktop\\DeadProject Goal1\\textures\\modular_texture_NRM.dds

newmtl modular_no_ref.002_NONE
Ns 96.078431
Ka 0.000000 0.000000 0.000000
Kd 0.499259 0.577739 0.609016
Ks 0.628763 0.628763 0.628763
Ni 1.000000
d 1.000000
illum 2
map_Bump C:\\Users\\moohoohoo\\Desktop\\DeadProject Goal1\\textures\\modular_texture_NRM.dds
map_Kd C:\\Users\\moohoohoo\\Desktop\\DeadProject Goal1\\textures\\modular_texture.dds

newmtl orange_emit
Ns 96.078431
Ka 0.000000 0.000000 0.000000
Kd 0.800000 0.535195 0.441529
Ks 0.000000 0.000000 0.000000
Ni 1.000000
d 0.833333
illum 0
map_Kd C:\Users\moohoohoo\Desktop\DeadProject Goal1\textures\modular_texture.dds

newmtl orange_modular
Ns 45.098039
Ka 0.000000 0.000000 0.000000
Kd 0.800000 0.683177 0.565819
Ks 0.802251 0.802251 0.802251
Ni 1.000000
d 1.000000
illum 2
map_Kd C:\Users\moohoohoo\Desktop\DeadProject Goal1\textures\modular_texture.dds
map_Bump C:\\Users\\moohoohoo\\Desktop\\DeadProject Goal1\\textures\\modular_texture_NRM.dds
refl C:\\Users\\moohoohoo\\Desktop\\DeadProject Goal1\\textures\\ref_map_cubic.dds

newmtl orange_modular_NONE
Ns 45.098039
Ka 0.000000 0.000000 0.000000
Kd 0.800000 0.683177 0.565819
Ks 0.802251 0.802251 0.802251
Ni 1.000000
d 1.000000
illum 2
map_Bump C:\\Users\\moohoohoo\\Desktop\\DeadProject Goal1\\textures\\modular_texture_NRM.dds
map_Kd C:\\Users\\moohoohoo\\Desktop\\DeadProject Goal1\\textures\\modular_texture.dds
refl C:\\Users\\moohoohoo\\Desktop\\DeadProject Goal1\\textures\\ref_map_cubic.dds

newmtl orange_modular_fake_glow.png
Ns 45.098039
Ka 0.000000 0.000000 0.000000
Kd 0.800000 0.683177 0.565819
Ks 0.802251 0.802251 0.802251
Ni 1.000000
d 1.000000
illum 2
map_Kd C:\Users\moohoohoo\Desktop\DeadProject Goal1\textures\dec_glow_random.png
map_Bump C:\\Users\\moohoohoo\\Desktop\\DeadProject Goal1\\textures\\modular_texture_NRM.dds
refl C:\\Users\\moohoohoo\\Desktop\\DeadProject Goal1\\textures\\ref_map_cubic.dds

newmtl part_fog.001
Ns 96.078431
Ka 0.000000 0.000000 0.000000
Kd 0.740304 0.790003 0.846823
Ks 0.000000 0.000000 0.000000
Ni 1.000000
d 0.000000
illum 0
map_Kd C:\Users\moohoohoo\Desktop\DeadProject Goal1\textures\dec_wind_mask.png
map_d C:\\Users\\moohoohoo\\Desktop\\DeadProject Goal1\\textures\\dec_wind_mask.png

newmtl part_glass_pieces
Ns 96.078431
Ka 0.000000 0.000000 0.000000
Kd 0.640000 0.640000 0.640000
Ks 0.000000 0.000000 0.000000
Ni 1.000000
d 0.000000
illum 1
map_Kd C:\Users\moohoohoo\Desktop\DeadProject Goal1\textures\dec_shattering_glass.png
map_d C:\\Users\\moohoohoo\\Desktop\\DeadProject Goal1\\textures\\dec_shattering_glass.png

newmtl part_splat
Ns 96.078431
Ka 0.000000 0.000000 0.000000
Kd 0.800000 0.800000 0.800000
Ks 0.500000 0.500000 0.500000
Ni 1.000000
d 0.000000
illum 0
map_Kd C:\Users\moohoohoo\Desktop\DeadProject Goal1\textures\dec_splatters_mask_cpoy.png
map_d C:\\Users\\moohoohoo\\Desktop\\DeadProject Goal1\\textures\\dec_splatters_mask_cpoy.png

newmtl particle_fire_steam
Ns 96.078431
Ka 0.000000 0.000000 0.000000
Kd 0.640000 0.613015 0.621306
Ks 0.000000 0.000000 0.000000
Ni 1.000000
d 0.000000
illum 1
map_Kd C:\Users\moohoohoo\Desktop\DeadProject Goal1\textures\part_fire_steam_electricity.png
map_d C:\\Users\\moohoohoo\\Desktop\\DeadProject Goal1\\textures\\part_fire_steam_electricity.png

newmtl particle_fire_steam_NONE
Ns 96.078431
Ka 0.000000 0.000000 0.000000
Kd 0.640000 0.613015 0.621306
Ks 0.000000 0.000000 0.000000
Ni 1.000000
d 0.000000
illum 1
map_Kd C:\\Users\\moohoohoo\\Desktop\\DeadProject Goal1\\textures\\part_fire_steam_electricity.png
map_d C:\\Users\\moohoohoo\\Desktop\\DeadProject Goal1\\textures\\part_fire_steam_electricity.png

newmtl particle_fire_steam_no_halo
Ns 96.078431
Ka 0.000000 0.000000 0.000000
Kd 0.640000 0.613015 0.621306
Ks 0.000000 0.000000 0.000000
Ni 1.000000
d 0.000000
illum 1
map_Kd C:\Users\moohoohoo\Desktop\DeadProject Goal1\textures\part_fire_steam_electricity.png
map_d C:\\Users\\moohoohoo\\Desktop\\DeadProject Goal1\\textures\\part_fire_steam_electricity.png

newmtl red_emit
Ns 96.078431
Ka 0.000000 0.000000 0.000000
Kd 0.800000 0.223344 0.091719
Ks 0.500000 0.500000 0.500000
Ni 1.000000
d 1.000000
illum 0
map_Kd C:\Users\moohoohoo\Desktop\DeadProject Goal1\textures\modular_texture.dds

newmtl reflect_liquid
Ns 96.078431
Ka 0.000000 0.000000 0.000000
Kd 0.230740 0.361307 0.467784
Ks 0.000000 0.000000 0.000000
Ni 1.000000
d 1.000000
illum 0
map_Kd C:\Users\moohoohoo\Desktop\DeadProject Goal1\textures\dec_part_points.png
refl C:\\Users\\moohoohoo\\Desktop\\DeadProject Goal1\\textures\\ref_map_cubic.dds

newmtl toxic_substance.001
Ns 96.078431
Ka 0.000000 0.000000 0.000000
Kd 0.000000 1.000000 0.250158
Ks 0.000000 0.000000 0.000000
Ni 1.000000
d 1.000000
illum 0

newmtl tree_emit
Ns 96.078431
Ka 0.000000 0.000000 0.000000
Kd 0.480000 0.352045 0.289714
Ks 0.500000 0.407680 0.375456
Ni 1.000000
d 0.833333
illum 2
map_Kd C:\Users\moohoohoo\Desktop\DeadProject Goal1\textures\modular_texture.dds

newmtl white_modular
Ns 47.058824
Ka 0.000000 0.000000 0.000000
Kd 0.751768 0.751768 0.751768
Ks 1.000000 1.000000 1.000000
Ni 1.000000
d 1.000000
illum 2
map_Kd C:\Users\moohoohoo\Desktop\DeadProject Goal1\textures\modular_texture.dds
map_Bump C:\\Users\\moohoohoo\\Desktop\\DeadProject Goal1\\textures\\modular_texture_NRM.dds

newmtl white_modular_2
Ns 96.078431
Ka 0.000000 0.000000 0.000000
Kd 0.980000 0.960000 1.000000
Ks 1.000000 1.000000 1.000000
Ni 1.000000
d 1.000000
illum 2
map_Bump C:\\Users\\moohoohoo\\Desktop\\DeadProject Goal1\\textures\\modular_texture_NRM.dds
map_Kd C:\\Users\\moohoohoo\\Desktop\\DeadProject Goal1\\textures\\modular_texture.dds
refl C:\\Users\\moohoohoo\\Desktop\\DeadProject Goal1\\textures\\ref_map_cubic.dds

newmtl white_modular_NONE
Ns 47.058824
Ka 0.000000 0.000000 0.000000
Kd 0.751768 0.751768 0.751768
Ks 1.000000 1.000000 1.000000
Ni 1.000000
d 1.000000
illum 2
map_Bump C:\\Users\\moohoohoo\\Desktop\\DeadProject Goal1\\textures\\modular_texture_NRM.dds
map_Kd C:\\Users\\moohoohoo\\Desktop\\DeadProject Goal1\\textures\\modular_texture.dds
